…
    ## file min/max dates: 1999-09-01 / 2024-09-30

``` r
weather_nest = 
weather_df |>
  nest(data = date:tmin)
```

``` r
weather_nest[["data"]][1]
```

    ## [[1]]
    ## # A tibble: 730 × 4
    ##    date        prcp  tmax  tmin
    ##    <date>     <dbl> <dbl> <dbl>
    ##  1 2021-01-01   157   4.4   0.6
    ##  2 2021-01-02    13  10.6   2.2
    ##  3 2021-01-03    56   3.3   1.1
    ##  4 2021-01-04     5   6.1   1.7
    ##  5 2021-01-05     0   5.6   2.2
    ##  6 2021-01-06     0   5     1.1
    ##  7 2021-01-07     0   5    -1  
    ##  8 2021-01-08     0   2.8  -2.7
    ##  9 2021-01-09     0   2.8  -4.3
    ## 10 2021-01-10     0   5    -1.6
    ## # ℹ 720 more rows
…
